.......................
----------------------------------------------------------------------
Ran 23 tests in 0.063s

OK
Name             Stmts   Miss Branch BrPart  Cover   Missing
------------------------------------------------------------
Collatz.py          58      0     22      0   100%
TestCollatz.py      87      0      2      0   100%
------------------------------------------------------------
TOTAL              145      0     24      0   100%
