1 10 20
100 200 125
201 210 89
900 1000 174
2 5 8
14 56 113
89 92 93
105 115 114
17 26 24
99 105 88
45 90 116
72 76 116
86 89 31
256 300 123
302 304 43
450 478 129
490 496 142
34 39 35
79 98 119
12 19 21
24 78 116
56 110 119
560 585 119
905 930 130
18 25 24
78 85 111
69 96 116
120 140 122
137 156 117
189 198 120
112 125 109
170 178 125
19 22 21
25 29 112
89 94 106
66 69 28
178 198 120
199 204 120
250 300 123
350 400 126
450 500 142
297 305 118
345 370 126
111 141 122
121 151 122
131 161 117
141 171 125
1 2 2
999 1000 112
9999 10000 92
2300 2310 152
2400 2410 165
2500 2510 134
2600 2610 178
2700 2710 160
2800 2810 160
2900 2910 142
3000 3010 155
3100 3110 155
3200 3210 168
3300 3310 137
5 50 112
6 60 113
7 70 113
8 80 116
9 90 116
5 51 112
6 61 113
7 71 113
8 81 116
9 91 116
2 22 21
3 33 112
4 44 112
5 55 113
6 66 113
7 77 116
8 88 116
9 99 119
1 101 119
2 202 125
999 1001 143
1 12 20
2 24 21
3 36 112
4 48 112
5 60 113
6 72 113
7 84 116
8 96 116
9 108 119
10 120 119
3 9 20
4 12 20
5 15 20
6 18 21
7 21 21
8 24 21
9 27 112
10 30 112
11 33 112
12 36 112
13 39 112
4 16 20
5 20 21
6 24 21
7 28 112
8 32 112
9 36 112
10 40 112
10000 50 262
1 999999 525
45000 75000 340
150000 450000 449
999998 999999 259
750000 850000 525
100000 200000 383
200000 300000 443
300000 400000 441
599000 600001 372
1000 2000 182
